[gd_scene load_steps=5 format=3 uid="uid://bxqgtdw3p2i2r"]

[ext_resource type="Texture2D" uid="uid://cpywlu2u6dtrf" path="res://splash.png" id="1_50ewe"]
[ext_resource type="Script" path="res://scripts/load.gd" id="2_1fdvh"]
[ext_resource type="Script" path="res://scripts/gui/load_bar.gd" id="3_am7uf"]
[ext_resource type="Script" path="res://scripts/gui/loading_string.gd" id="4_f018n"]

[node name="SplashScreen" type="Control"]
layout_mode = 3
anchors_preset = 0
script = ExtResource("2_1fdvh")

[node name="SplashScreen" type="Sprite2D" parent="."]
position = Vector2(540, 1170)
texture = ExtResource("1_50ewe")

[node name="ProgressBar" type="ProgressBar" parent="."]
layout_mode = 0
offset_left = 74.0
offset_top = 1493.0
offset_right = 976.0
offset_bottom = 1520.0
show_percentage = false
script = ExtResource("3_am7uf")

[node name="loading_string" type="Label" parent="."]
layout_mode = 0
offset_left = -8.0
offset_top = 1372.0
offset_right = 1080.0
offset_bottom = 1459.0
horizontal_alignment = 1
vertical_alignment = 1
script = ExtResource("4_f018n")

[connection signal="loaded_stage" from="." to="ProgressBar" method="_on_splash_screen_loaded_stage"]
[connection signal="loaded_stage" from="." to="loading_string" method="_on_splash_screen_loaded_stage"]
[connection signal="loading_finished" from="." to="ProgressBar" method="_on_splash_screen_loading_finished"]
[connection signal="loading_finished" from="." to="loading_string" method="_on_splash_screen_loading_finished"]
