; Engine configuration file.
; It's best edited using the editor UI and not directly,
; since the parameters that go here are not all obvious.
;
; Format:
;   [section] ; section goes between []
;   param=value ; assign values to parameters

config_version=5

[application]

config/name="Beast Hunt"
run/main_scene="res://scenes/Main.tscn"
config/auto_accept_quit=false
config/quit_on_go_back=false
config/features=PackedStringArray("4.3")
boot_splash/bg_color=Color(0.0784314, 0.258824, 0.427451, 1)
boot_splash/image="res://splash.png"
config/icon="res://icon.png"

[display]

window/size/viewport_width=1080
window/size/viewport_height=2340
window/size/window_width_override=540
window/size/window_height_override=1170
window/stretch/mode="viewport"
window/stretch/aspect="keep_width"
window/handheld/orientation=1

[editor_plugins]

enabled=PackedStringArray()

[filesystem]

import/blender/enabled=false

[gdnative]

singletons=[]

[gui]

fonts/dynamic_fonts/use_oversampling=false

[input]

go_north={
"deadzone": 0.5,
"events": [Object(InputEventKey,"resource_local_to_scene":false,"resource_name":"","device":0,"window_id":0,"alt_pressed":false,"shift_pressed":false,"ctrl_pressed":false,"meta_pressed":false,"pressed":false,"keycode":0,"physical_keycode":4194320,"key_label":0,"unicode":0,"location":0,"echo":false,"script":null)
, Object(InputEventKey,"resource_local_to_scene":false,"resource_name":"","device":0,"window_id":0,"alt_pressed":false,"shift_pressed":false,"ctrl_pressed":false,"meta_pressed":false,"pressed":false,"keycode":0,"physical_keycode":87,"key_label":0,"unicode":0,"location":0,"echo":false,"script":null)
]
}
go_west={
"deadzone": 0.5,
"events": [Object(InputEventKey,"resource_local_to_scene":false,"resource_name":"","device":0,"window_id":0,"alt_pressed":false,"shift_pressed":false,"ctrl_pressed":false,"meta_pressed":false,"pressed":false,"keycode":0,"physical_keycode":65,"key_label":0,"unicode":0,"location":0,"echo":false,"script":null)
, Object(InputEventKey,"resource_local_to_scene":false,"resource_name":"","device":0,"window_id":0,"alt_pressed":false,"shift_pressed":false,"ctrl_pressed":false,"meta_pressed":false,"pressed":false,"keycode":0,"physical_keycode":4194319,"key_label":0,"unicode":0,"location":0,"echo":false,"script":null)
]
}
go_south={
"deadzone": 0.5,
"events": [Object(InputEventKey,"resource_local_to_scene":false,"resource_name":"","device":0,"window_id":0,"alt_pressed":false,"shift_pressed":false,"ctrl_pressed":false,"meta_pressed":false,"pressed":false,"keycode":0,"physical_keycode":4194322,"key_label":0,"unicode":0,"location":0,"echo":false,"script":null)
, Object(InputEventKey,"resource_local_to_scene":false,"resource_name":"","device":0,"window_id":0,"alt_pressed":false,"shift_pressed":false,"ctrl_pressed":false,"meta_pressed":false,"pressed":false,"keycode":0,"physical_keycode":83,"key_label":0,"unicode":0,"location":0,"echo":false,"script":null)
]
}
go_east={
"deadzone": 0.5,
"events": [Object(InputEventKey,"resource_local_to_scene":false,"resource_name":"","device":0,"window_id":0,"alt_pressed":false,"shift_pressed":false,"ctrl_pressed":false,"meta_pressed":false,"pressed":false,"keycode":0,"physical_keycode":4194321,"key_label":0,"unicode":0,"location":0,"echo":false,"script":null)
, Object(InputEventKey,"resource_local_to_scene":false,"resource_name":"","device":0,"window_id":0,"alt_pressed":false,"shift_pressed":false,"ctrl_pressed":false,"meta_pressed":false,"pressed":false,"keycode":0,"physical_keycode":68,"key_label":0,"unicode":0,"location":0,"echo":false,"script":null)
]
}
shoot={
"deadzone": 0.5,
"events": [Object(InputEventKey,"resource_local_to_scene":false,"resource_name":"","device":0,"window_id":0,"alt_pressed":false,"shift_pressed":false,"ctrl_pressed":false,"meta_pressed":false,"pressed":false,"keycode":0,"physical_keycode":32,"key_label":0,"unicode":0,"location":0,"echo":false,"script":null)
, Object(InputEventKey,"resource_local_to_scene":false,"resource_name":"","device":0,"window_id":0,"alt_pressed":false,"shift_pressed":false,"ctrl_pressed":false,"meta_pressed":false,"pressed":false,"keycode":0,"physical_keycode":4194309,"key_label":0,"unicode":0,"location":0,"echo":false,"script":null)
]
}

[mono]

project/assembly_name="Beast Hunt"

[physics]

common/enable_pause_aware_picking=true

[rendering]

renderer/rendering_method="gl_compatibility"
textures/vram_compression/import_etc2_astc=true
environment/defaults/default_environment="res://default_env.tres"
quality/driver/driver_name="GLES2"
vram_compression/import_etc=true
